-------------------------------------------------------------------------------
Test set: hu.unideb.inf.RunCucumberTest
-------------------------------------------------------------------------------
Tests run: 3, Failures: 0, Errors: 0, Skipped: 0, Time elapsed: 18.761 s - in hu.unideb.inf.RunCucumberTest
